Manual básico de R - Análisis exploratorio de datos
…
Repaso 2: ¿Calidad o cantidad?

Cuando empiezas a explorar datos, ¿es mejor formular una o dos preguntas de gran calidad, o muchas, muchas preguntas para explorar?

Una o dos preguntas de alta calidad

Muchas, muchas preguntas

Repaso 3: Definiciones

penguins es un divertido conjunto de datos de ejemplo que viene con el paquete {palmerpenguins}. El conjunto de datos describe 344 pingüinos distribuidos por 3 islas en el archipiélago Palmer, en la Antártida. Cada fila en penguins muestra detalles sobre un pingüino, incluyendo la isla en la que vive, la longitud de su pico, la altura de su pico, la longitud de sus aletas, su masa corporal, su sexo y el año en el que se tomaron sus medidas Puedes usar estas mediciones para deducir la especie del pingüino, que también está incluida en penguins.

penguins

# A tibble: 344 × 8
   species island    bill_length_mm bill_depth_mm flipper_length_mm body_mass_g sex     year
   <fct>   <fct>              <dbl>         <dbl>             <int>       <int> <fct>  <int>
 1 Adelie  Torgersen           39.1          18.7               181        3750 male    2007
 2 Adelie  Torgersen           39.5          17.4               186        3800 female  2007
 3 Adelie  Torgersen           40.3          18                 195        3250 female  2007
 4 Adelie  Torgersen           NA            NA                  NA          NA <NA>    2007
 5 Adelie  Torgersen           36.7          19.3               193        3450 female  2007
 6 Adelie  Torgersen           39.3          20.6               190        3650 male    2007
 7 Adelie  Torgersen           38.9          17.8               181        3625 female  2007
 8 Adelie  Torgersen           39.2          19.6               195        4675 male    2007
 9 Adelie  Torgersen           34.1          18.1               193        3475 <NA>    2007
10 Adelie  Torgersen           42            20.2               190        4250 <NA>    2007
# ℹ 334 more rows
…
